{
  "doc_version": "v1",
  "version": {
    "name": "signald",
    "version": "0.14.1+git2021-08-27r6dd96a17.28",
    "branch": "main",
    "commit": "6dd96a17c921766b0d284165e571476744ac2829"
  },
  "info": "This document describes objects that may be used when communicating with signald.",
  "types": {
    "v1": {
      "JsonMessageEnvelope": {
        "fields": {
          "username": {
            "type": "String",
            "example": "\"+12024561414\""
          },
          "uuid": {
            "type": "String",
            "example": "\"0cc10e61-d64c-4dbc-b51c-334f7dd45a4a\""
          },
          "source": {
            "type": "JsonAddress",
            "version": "v1"
          },
          "sourceDevice": {
            "type": "int"
          },
          "type": {
            "type": "String"
          },
          "relay": {
            "type": "String"
          },
          "timestamp": {
            "type": "long",
            "example": "1615576442475"
          },
          "timestampISO": {
            "type": "String"
          },
          "serverTimestamp": {
            "type": "long"
          },
          "serverDeliveredTimestamp": {
            "type": "long",
            "example": "161557644247580"
          },
          "hasLegacyMessage": {
            "type": "boolean"
          },
          "hasContent": {
            "type": "boolean"
          },
          "isUnidentifiedSender": {
            "type": "boolean"
          },
          "dataMessage": {
            "type": "JsonDataMessage",
            "version": "v1"
          },
          "syncMessage": {
            "type": "JsonSyncMessage",
            "version": "v1"
          },
          "callMessage": {
            "type": "JsonCallMessage",
            "version": "v0"
          },
          "receipt": {
            "type": "JsonReceiptMessage",
            "version": "v0"
          },
          "typing": {
            "type": "JsonTypingMessage",
            "version": "v0"
          }
        }
      },
      "IncomingMessage": {
        "fields": {
          "account": {
            "type": "String",
            "example": "\"+12024561414\""
          },
          "source": {
            "type": "JsonAddress",
            "version": "v1"
          },
          "type": {
            "type": "String"
          },
          "timestamp": {
            "type": "long",
            "example": "1615576442475"
          },
          "source_device": {
            "type": "int"
          },
          "server_receiver_timestamp": {
            "type": "long",
            "example": "1615576442475"
          },
          "server_deliver_timestamp": {
            "type": "long",
            "example": "1615576442475"
          },
          "has_legacy_message": {
            "type": "boolean"
          },
          "has_content": {
            "type": "boolean"
          },
          "unidentified_sender": {
            "type": "boolean"
          },
          "data_message": {
            "type": "JsonDataMessage",
            "version": "v1"
          },
          "sync_message": {
            "type": "JsonSyncMessage",
            "version": "v1"
          },
          "call_message": {
            "type": "CallMessage",
            "version": "v1"
          },
          "receipt_message": {
            "type": "ReceiptMessage",
            "version": "v1"
          },
          "typing_message": {
            "type": "TypingMessage",
            "version": "v1"
          },
          "server_guid": {
            "type": "String"
          }
        }
      },
      "ListenerState": {
        "fields": {
          "connected": {
            "type": "boolean"
          }
        },
        "doc": "indicates when the incoming connection to the signal server has started or stopped"
      },
      "ClientMessageWrapper": {
        "fields": {
          "type": {
            "type": "String",
            "doc": "the type of object to expect in the `data` field"
          },
          "version": {
            "type": "String",
            "doc": "the version of the object in the `data` field"
          },
          "data": {
            "type": "Object",
            "doc": "the incoming object. The structure will vary from message to message, see `type` and `version` fields"
          },
          "error": {
            "type": "Boolean",
            "doc": "true if the incoming message represents an error"
          }
        },
        "doc": "Wraps all incoming messages after a v1 subscribe request is issued"
      },
      "SendRequest": {
        "fields": {
          "username": {
            "type": "String",
            "example": "\"+12024561414\"",
            "required": true
          },
          "recipientAddress": {
            "type": "JsonAddress",
            "version": "v1"
          },
          "recipientGroupId": {
            "type": "String",
            "example": "\"EdSqI90cS0UomDpgUXOlCoObWvQOXlH5G3Z2d3f4ayE=\""
          },
          "messageBody": {
            "type": "String",
            "example": "\"hello\""
          },
          "attachments": {
            "list": true,
            "type": "JsonAttachment",
            "version": "v0"
          },
          "quote": {
            "type": "JsonQuote",
            "version": "v1"
          },
          "timestamp": {
            "type": "Long"
          },
          "mentions": {
            "list": true,
            "type": "JsonMention",
            "version": "v1"
          }
        }
      },
      "SendResponse": {
        "fields": {
          "results": {
            "list": true,
            "type": "JsonSendMessageResult",
            "version": "v1"
          },
          "timestamp": {
            "type": "long",
            "example": "1615576442475"
          }
        }
      },
      "ReactRequest": {
        "fields": {
          "username": {
            "type": "String",
            "example": "\"+12024561414\"",
            "required": true
          },
          "recipientAddress": {
            "type": "JsonAddress",
            "version": "v1"
          },
          "recipientGroupId": {
            "type": "String",
            "example": "\"EdSqI90cS0UomDpgUXOlCoObWvQOXlH5G3Z2d3f4ayE=\""
          },
          "reaction": {
            "type": "JsonReaction",
            "version": "v1",
            "required": true
          },
          "timestamp": {
            "type": "long"
          }
        },
        "doc": "react to a previous message"
      },
      "VersionRequest": {
        "fields": {}
      },
      "JsonVersionMessage": {
        "fields": {
          "name": {
            "type": "String",
            "example": "\"signald\""
          },
          "version": {
            "type": "String",
            "example": "\"0.14.1+git2021-08-27r6dd96a17.28\""
          },
          "branch": {
            "type": "String",
            "example": "\"main\""
          },
          "commit": {
            "type": "String",
            "example": "\"6dd96a17c921766b0d284165e571476744ac2829\""
          }
        }
      },
      "AcceptInvitationRequest": {
        "fields": {
          "account": {
            "type": "String",
            "doc": "The account to interact with",
            "example": "\"+12024561414\"",
            "required": true
          },
          "groupID": {
            "type": "String",
            "example": "\"EdSqI90cS0UomDpgUXOlCoObWvQOXlH5G3Z2d3f4ayE=\"",
            "required": true
          }
        },
        "doc": "Accept a v2 group invitation. Note that you must have a profile name set to join groups."
      },
      "JsonGroupV2Info": {
        "fields": {
          "id": {
            "type": "String",
            "example": "\"EdSqI90cS0UomDpgUXOlCoObWvQOXlH5G3Z2d3f4ayE=\""
          },
          "revision": {
            "type": "int",
            "example": "5"
          },
          "title": {
            "type": "String",
            "example": "\"Parkdale Run Club\""
          },
          "description": {
            "type": "String"
          },
          "avatar": {
            "type": "String",
            "doc": "path to the group's avatar on local disk, if available",
            "example": "\"/var/lib/signald/avatars/group-EdSqI90cS0UomDpgUXOlCoObWvQOXlH5G3Z2d3f4ayE=\""
          },
          "timer": {
            "type": "int",
            "example": "604800"
          },
          "members": {
            "list": true,
            "type": "JsonAddress",
            "version": "v1"
          },
          "pendingMembers": {
            "list": true,
            "type": "JsonAddress",
            "version": "v1"
          },
          "requestingMembers": {
            "list": true,
            "type": "JsonAddress",
            "version": "v1"
          },
          "inviteLink": {
            "type": "String",
            "doc": "the signal.group link, if applicable"
          },
          "accessControl": {
            "type": "GroupAccessControl",
            "version": "v1",
            "doc": "current access control settings for this group"
          },
          "memberDetail": {
            "list": true,
            "type": "GroupMember",
            "version": "v1",
            "doc": "detailed member list"
          },
          "pendingMemberDetail": {
            "list": true,
            "type": "GroupMember",
            "version": "v1",
            "doc": "detailed pending member list"
          }
        },
        "doc": "Information about a Signal group"
      },
      "ApproveMembershipRequest": {
        "fields": {
          "account": {
            "type": "String",
            "doc": "The account to interact with",
            "example": "\"+12024561414\"",
            "required": true
          },
          "groupID": {
            "type": "String",
            "example": "\"EdSqI90cS0UomDpgUXOlCoObWvQOXlH5G3Z2d3f4ayE=\"",
            "required": true
          },
          "members": {
            "list": true,
            "type": "JsonAddress",
            "version": "v1",
            "doc": "list of requesting members to approve",
            "required": true
          }
        },
        "doc": "approve a request to join a group"
      },
      "GetGroupRequest": {
        "fields": {
          "account": {
            "type": "String",
            "doc": "The account to interact with",
            "example": "\"+12024561414\"",
            "required": true
          },
          "groupID": {
            "type": "String",
            "example": "\"EdSqI90cS0UomDpgUXOlCoObWvQOXlH5G3Z2d3f4ayE=\"",
            "required": true
          },
          "revision": {
            "type": "int",
            "doc": "the latest known revision, default value (-1) forces fetch from server"
          }
        },
        "doc": "Query the server for the latest state of a known group. If no account in signald is a member of the group (anymore), an error with error_type: 'UnknownGroupException' is returned."
      },
      "GetLinkedDevicesRequest": {
        "fields": {
          "account": {
            "type": "String",
            "doc": "The account to interact with",
            "example": "\"+12024561414\"",
            "required": true
          }
        },
        "doc": "list all linked devices on a Signal account"
      },
      "LinkedDevices": {
        "fields": {
          "devices": {
            "list": true,
            "type": "DeviceInfo",
            "version": "v1"
          }
        }
      },
      "JoinGroupRequest": {
        "fields": {
          "account": {
            "type": "String",
            "doc": "The account to interact with",
            "example": "\"+12024561414\"",
            "required": true
          },
          "uri": {
            "type": "String",
            "doc": "The signal.group URL",
            "example": "\"https://signal.group/#CjQKINH_GZhXhfifTcnBkaKTNRxW-hHKnGSq-cJNyPVqHRp8EhDUB7zjKNEl0NaULhsqJCX3\"",
            "required": true
          }
        },
        "doc": "Join a group using the a signal.group URL. Note that you must have a profile name set to join groups."
      },
      "JsonGroupJoinInfo": {
        "fields": {
          "groupID": {
            "type": "String",
            "example": "\"EdSqI90cS0UomDpgUXOlCoObWvQOXlH5G3Z2d3f4ayE=\""
          },
          "title": {
            "type": "String",
            "example": "\"Parkdale Run Club\""
          },
          "description": {
            "type": "String",
            "example": "\"A club for running in Parkdale\""
          },
          "memberCount": {
            "type": "int",
            "example": "3"
          },
          "addFromInviteLink": {
            "type": "int",
            "doc": "The access level required in order to join the group from the invite link, as an AccessControl.AccessRequired enum from the upstream Signal groups.proto file. This is UNSATISFIABLE (4) when the group link is disabled; ADMINISTRATOR (3) when the group link is enabled, but an administrator must approve new members; and ANY (1) when the group link is enabled and no approval is required. See theGroupAccessControl structure and the upstream enum ordinals."
          },
          "revision": {
            "type": "int",
            "doc": "The Group V2 revision. This is incremented by clients whenever they update group information, and it is often used by clients to determine if the local group state is out-of-date with the server's revision.",
            "example": "5"
          },
          "pendingAdminApproval": {
            "type": "boolean",
            "doc": "Whether the account is waiting for admin approval in order to be added to the group."
          }
        }
      },
      "RemoveLinkedDeviceRequest": {
        "fields": {
          "account": {
            "type": "String",
            "doc": "The account to interact with",
            "example": "\"+12024561414\"",
            "required": true
          },
          "deviceId": {
            "type": "long",
            "doc": "the ID of the device to unlink",
            "example": "3",
            "required": true
          }
        },
        "doc": "Remove a linked device from the Signal account. Only allowed when the local device id is 1"
      },
      "UpdateGroupRequest": {
        "fields": {
          "account": {
            "type": "String",
            "doc": "The identifier of the account to interact with",
            "example": "\"+12024561414\"",
            "required": true
          },
          "groupID": {
            "type": "String",
            "doc": "the ID of the group to update",
            "example": "\"EdSqI90cS0UomDpgUXOlCoObWvQOXlH5G3Z2d3f4ayE=\"",
            "required": true
          },
          "title": {
            "type": "String",
            "example": "\"Parkdale Run Club\""
          },
          "description": {
            "type": "String",
            "doc": "A new group description. Set to empty string to remove an existing description.",
            "example": "\"A club for running in Parkdale\""
          },
          "avatar": {
            "type": "String",
            "example": "\"/tmp/image.jpg\""
          },
          "updateTimer": {
            "type": "int",
            "doc": "update the group timer."
          },
          "addMembers": {
            "list": true,
            "type": "JsonAddress",
            "version": "v1"
          },
          "removeMembers": {
            "list": true,
            "type": "JsonAddress",
            "version": "v1"
          },
          "updateRole": {
            "type": "GroupMember",
            "version": "v1"
          },
          "updateAccessControl": {
            "type": "GroupAccessControl",
            "version": "v1",
            "doc": "note that only one of the access controls may be updated per request"
          },
          "resetLink": {
            "type": "boolean",
            "doc": "regenerate the group link password, invalidating the old one"
          }
        },
        "doc": "modify a group. Note that only one modification action may be performed at once"
      },
      "GroupInfo": {
        "fields": {
          "v1": {
            "type": "JsonGroupInfo",
            "version": "v1"
          },
          "v2": {
            "type": "JsonGroupV2Info",
            "version": "v1"
          }
        },
        "doc": "A generic type that is used when the group version is not known"
      },
      "SetProfile": {
        "fields": {
          "account": {
            "type": "String",
            "doc": "The phone number of the account to use",
            "example": "\"+12024561414\"",
            "required": true
          },
          "name": {
            "type": "String",
            "doc": "New profile name. Set to empty string for no profile name",
            "example": "\"signald user\"",
            "required": true
          },
          "avatarFile": {
            "type": "String",
            "doc": "Path to new profile avatar file. If unset or null, unset the profile avatar",
            "example": "\"/tmp/image.jpg\""
          },
          "about": {
            "type": "String",
            "doc": "an optional about string. If unset, null or an empty string will unset profile about field"
          },
          "emoji": {
            "type": "String",
            "doc": "an optional single emoji character. If unset, null or an empty string will unset profile emoji"
          },
          "mobilecoin_address": {
            "type": "String",
            "doc": "an optional *base64-encoded* MobileCoin address to set in the profile. Note that this is not the traditional MobileCoin address encoding, which is custom. Clients are responsible for converting between MobileCoin's custom base58 on the user-facing side and base64 encoding on the signald side. If unset, null or an empty string, will empty the profile payment address"
          }
        }
      },
      "ResolveAddressRequest": {
        "fields": {
          "account": {
            "type": "String",
            "doc": "The signal account to use",
            "example": "\"+12024561414\"",
            "required": true
          },
          "partial": {
            "type": "JsonAddress",
            "version": "v1",
            "doc": "The partial address, missing fields",
            "required": true
          }
        },
        "doc": "Resolve a partial JsonAddress with only a number or UUID to one with both. Anywhere that signald accepts a JsonAddress will except a partial, this is a convenience function for client authors, mostly because signald doesn't resolve all the partials it returns"
      },
      "JsonAddress": {
        "fields": {
          "number": {
            "type": "String",
            "doc": "An e164 phone number, starting with +. Currently the only available user-facing Signal identifier.",
            "example": "\"+13215551234\""
          },
          "uuid": {
            "type": "UUID",
            "doc": "A UUID, the unique identifier for a particular Signal account."
          },
          "relay": {
            "type": "String"
          }
        }
      },
      "MarkReadRequest": {
        "fields": {
          "account": {
            "type": "String",
            "doc": "The account to interact with",
            "example": "\"+12024561414\"",
            "required": true
          },
          "to": {
            "type": "JsonAddress",
            "version": "v1",
            "doc": "The address that sent the message being marked as read",
            "required": true
          },
          "timestamps": {
            "list": true,
            "type": "Long",
            "doc": "List of messages to mark as read",
            "example": "1615576442475",
            "required": true
          },
          "when": {
            "type": "Long"
          }
        }
      },
      "GetProfileRequest": {
        "fields": {
          "account": {
            "type": "String",
            "doc": "the signald account to use",
            "required": true
          },
          "async": {
            "type": "boolean",
            "doc": "if true, return results from local store immediately, refreshing from server in the background if needed. if false (default), block until profile can be retrieved from server"
          },
          "address": {
            "type": "JsonAddress",
            "version": "v1",
            "doc": "the address to look up",
            "required": true
          }
        },
        "doc": "Get all information available about a user"
      },
      "Profile": {
        "fields": {
          "name": {
            "type": "String",
            "doc": "The user's name from local contact names if available, or if not in contact list their Signal profile name"
          },
          "avatar": {
            "type": "String",
            "doc": "path to avatar on local disk"
          },
          "address": {
            "type": "JsonAddress",
            "version": "v1"
          },
          "capabilities": {
            "type": "Capabilities",
            "version": "v1"
          },
          "color": {
            "type": "String",
            "doc": "color of the chat with this user"
          },
          "about": {
            "type": "String"
          },
          "emoji": {
            "type": "String"
          },
          "profile_name": {
            "type": "String",
            "doc": "The user's Signal profile name"
          },
          "inbox_position": {
            "type": "Integer"
          },
          "expiration_time": {
            "type": "int"
          },
          "mobilecoin_address": {
            "type": "String",
            "doc": "*base64-encoded* mobilecoin address. Note that this is not the traditional MobileCoin address encoding. Clients are responsible for converting between MobileCoin's custom base58 on the user-facing side and base64 encoding on the signald side. If unset, null or an empty string, will empty the profile payment address"
          }
        },
        "doc": "Information about a Signal user"
      },
      "ListGroupsRequest": {
        "fields": {
          "account": {
            "type": "String",
            "required": true
          }
        }
      },
      "GroupList": {
        "fields": {
          "groups": {
            "list": true,
            "type": "JsonGroupV2Info",
            "version": "v1"
          },
          "legacyGroups": {
            "list": true,
            "type": "JsonGroupInfo",
            "version": "v1"
          }
        }
      },
      "ListContactsRequest": {
        "fields": {
          "account": {
            "type": "String",
            "required": true
          },
          "async": {
            "type": "boolean",
            "doc": "return results from local store immediately, refreshing from server afterward if needed. If false (default), block until all pending profiles have been retrieved."
          }
        }
      },
      "ProfileList": {
        "fields": {
          "profiles": {
            "list": true,
            "type": "Profile",
            "version": "v1"
          }
        }
      },
      "CreateGroupRequest": {
        "fields": {
          "account": {
            "type": "String",
            "doc": "The account to interact with",
            "example": "\"+12024561414\"",
            "required": true
          },
          "title": {
            "type": "String",
            "example": "\"Parkdale Run Club\"",
            "required": true
          },
          "avatar": {
            "type": "String",
            "example": "\"/tmp/image.jpg\""
          },
          "members": {
            "list": true,
            "type": "JsonAddress",
            "version": "v1",
            "required": true
          },
          "timer": {
            "type": "int",
            "doc": "the message expiration timer"
          },
          "member_role": {
            "type": "String",
            "doc": "The role of all members other than the group creator. Options are ADMINISTRATOR or DEFAULT (case insensitive)",
            "example": "\"ADMINISTRATOR\""
          }
        }
      },
      "LeaveGroupRequest": {
        "fields": {
          "account": {
            "type": "String",
            "doc": "The account to use",
            "example": "\"+12024561414\"",
            "required": true
          },
          "groupID": {
            "type": "String",
            "doc": "The group to leave",
            "example": "\"EdSqI90cS0UomDpgUXOlCoObWvQOXlH5G3Z2d3f4ayE=\"",
            "required": true
          }
        }
      },
      "GenerateLinkingURIRequest": {
        "fields": {
          "server": {
            "type": "String",
            "doc": "The identifier of the server to use. Leave blank for default (usually Signal production servers but configurable at build time)"
          }
        },
        "doc": "Generate a linking URI. Typically this is QR encoded and scanned by the primary device. Submit the returned session_id with a finish_link request."
      },
      "LinkingURI": {
        "fields": {
          "uri": {
            "type": "String"
          },
          "session_id": {
            "type": "String"
          }
        }
      },
      "FinishLinkRequest": {
        "fields": {
          "device_name": {
            "type": "String"
          },
          "session_id": {
            "type": "String"
          }
        },
        "doc": "After a linking URI has been requested, finish_link must be called with the session_id provided with the URI. it will return information about the new account once the linking process is completed by the other device."
      },
      "Account": {
        "fields": {
          "address": {
            "type": "JsonAddress",
            "version": "v1",
            "doc": "The address of this account"
          },
          "device_id": {
            "type": "int",
            "doc": "The Signal device ID. Official Signal mobile clients (iPhone and Android) have device ID = 1, while linked devices such as Signal Desktop or Signal iPad have higher device IDs."
          },
          "account_id": {
            "type": "String",
            "doc": "The primary identifier on the account, included with all requests to signald for this account. Previously called 'username'"
          }
        },
        "doc": "A local account in signald"
      },
      "AddLinkedDeviceRequest": {
        "fields": {
          "account": {
            "type": "String",
            "doc": "The account to interact with",
            "example": "\"+12024561414\"",
            "required": true
          },
          "uri": {
            "type": "String",
            "doc": "the tsdevice:/ uri provided (typically in qr code form) by the new device",
            "example": "\"tsdevice:/?uuid=jAaZ5lxLfh7zVw5WELd6-Q&pub_key=BfFbjSwmAgpVJBXUdfmSgf61eX3a%2Bq9AoxAVpl1HUap9\"",
            "required": true
          }
        },
        "doc": "Link a new device to a local Signal account"
      },
      "RegisterRequest": {
        "fields": {
          "account": {
            "type": "String",
            "doc": "the e164 phone number to register with",
            "example": "\"+12024561414\"",
            "required": true
          },
          "voice": {
            "type": "boolean",
            "doc": "set to true to request a voice call instead of an SMS for verification"
          },
          "captcha": {
            "type": "String",
            "doc": "See https://signald.org/articles/captcha/"
          },
          "server": {
            "type": "String",
            "doc": "The identifier of the server to use. Leave blank for default (usually Signal production servers but configurable at build time)"
          }
        },
        "doc": "begin the account registration process by requesting a phone number verification code. when the code is received, submit it with a verify request"
      },
      "VerifyRequest": {
        "fields": {
          "account": {
            "type": "String",
            "doc": "the e164 phone number being verified",
            "example": "\"+12024561414\"",
            "required": true
          },
          "code": {
            "type": "String",
            "doc": "the verification code, dash (-) optional",
            "example": "\"555555\"",
            "required": true
          }
        },
        "doc": "verify an account's phone number with a code after registering, completing the account creation process"
      },
      "GetIdentitiesRequest": {
        "fields": {
          "account": {
            "type": "String",
            "doc": "The account to interact with",
            "example": "\"+12024561414\"",
            "required": true
          },
          "address": {
            "type": "JsonAddress",
            "version": "v1",
            "doc": "address to get keys for",
            "required": true
          }
        },
        "doc": "Get information about a known keys for a particular address"
      },
      "IdentityKeyList": {
        "fields": {
          "address": {
            "type": "JsonAddress",
            "version": "v1"
          },
          "identities": {
            "list": true,
            "type": "IdentityKey",
            "version": "v1"
          }
        },
        "doc": "a list of identity keys associated with a particular address"
      },
      "TrustRequest": {
        "fields": {
          "account": {
            "type": "String",
            "doc": "The account to interact with",
            "example": "\"+12024561414\"",
            "required": true
          },
          "address": {
            "type": "JsonAddress",
            "version": "v1",
            "doc": "The user to query identity keys for",
            "required": true
          },
          "safety_number": {
            "type": "String",
            "doc": "required if qr_code_data is absent",
            "example": "\"373453558586758076680580548714989751943247272727416091564451\""
          },
          "qr_code_data": {
            "type": "String",
            "doc": "base64-encoded QR code data. required if safety_number is absent"
          },
          "trust_level": {
            "type": "String",
            "doc": "One of TRUSTED_UNVERIFIED, TRUSTED_VERIFIED or UNTRUSTED. Default is TRUSTED_VERIFIED",
            "example": "\"TRUSTED_VERIFIED\""
          }
        },
        "doc": "Trust another user's safety number using either the QR code data or the safety number text"
      },
      "DeleteAccountRequest": {
        "fields": {
          "account": {
            "type": "String",
            "doc": "The account to delete",
            "example": "\"+12024561414\"",
            "required": true
          },
          "server": {
            "type": "boolean",
            "doc": "delete account information from the server as well (default false)"
          }
        },
        "doc": "delete all account data signald has on disk, and optionally delete the account from the server as well. Note that this is not \"unlink\" and will delete the entire account, even from a linked device."
      },
      "TypingRequest": {
        "fields": {
          "account": {
            "type": "String",
            "doc": "The account to use",
            "example": "\"+12024561414\"",
            "required": true
          },
          "address": {
            "type": "JsonAddress",
            "version": "v1"
          },
          "group": {
            "type": "String",
            "example": "\"EdSqI90cS0UomDpgUXOlCoObWvQOXlH5G3Z2d3f4ayE=\""
          },
          "typing": {
            "type": "boolean",
            "example": "true",
            "required": true
          },
          "when": {
            "type": "long"
          }
        },
        "doc": "send a typing started or stopped message"
      },
      "ResetSessionRequest": {
        "fields": {
          "account": {
            "type": "String",
            "doc": "The account to use",
            "example": "\"+12024561414\"",
            "required": true
          },
          "address": {
            "type": "JsonAddress",
            "version": "v1",
            "doc": "the user to reset session with",
            "required": true
          },
          "timestamp": {
            "type": "Long"
          }
        },
        "doc": "reset a session with a particular user"
      },
      "RequestSyncRequest": {
        "fields": {
          "account": {
            "type": "String",
            "doc": "The account to use",
            "example": "\"+12024561414\"",
            "required": true
          },
          "groups": {
            "type": "boolean",
            "doc": "request group sync (default true)"
          },
          "configuration": {
            "type": "boolean",
            "doc": "request configuration sync (default true)"
          },
          "contacts": {
            "type": "boolean",
            "doc": "request contact sync (default true)"
          },
          "blocked": {
            "type": "boolean",
            "doc": "request block list sync (default true)"
          }
        },
        "doc": "Request other devices on the account send us their group list, syncable config and contact list."
      },
      "ListAccountsRequest": {
        "fields": {},
        "doc": "return all local accounts"
      },
      "AccountList": {
        "fields": {
          "accounts": {
            "list": true,
            "type": "Account",
            "version": "v1"
          }
        }
      },
      "GroupLinkInfoRequest": {
        "fields": {
          "account": {
            "type": "String",
            "doc": "The account to use",
            "example": "\"+12024561414\"",
            "required": true
          },
          "uri": {
            "type": "String",
            "doc": "the signald.group link",
            "example": "\"https://signal.group/#CjQKINH_GZhXhfifTcnBkaKTNRxW-hHKnGSq-cJNyPVqHRp8EhDUB7zjKNEl0NaULhsqJCX3\"",
            "required": true
          }
        },
        "doc": "Get information about a group from a signal.group link"
      },
      "UpdateContactRequest": {
        "fields": {
          "account": {
            "type": "String",
            "required": true
          },
          "address": {
            "type": "JsonAddress",
            "version": "v1",
            "required": true
          },
          "name": {
            "type": "String"
          },
          "color": {
            "type": "String"
          },
          "inbox_position": {
            "type": "Integer"
          }
        },
        "doc": "update information about a local contact"
      },
      "SetExpirationRequest": {
        "fields": {
          "account": {
            "type": "String",
            "doc": "The account to use",
            "example": "\"+12024561414\"",
            "required": true
          },
          "address": {
            "type": "JsonAddress",
            "version": "v1"
          },
          "group": {
            "type": "String",
            "example": "\"EdSqI90cS0UomDpgUXOlCoObWvQOXlH5G3Z2d3f4ayE=\""
          },
          "expiration": {
            "type": "int",
            "example": "604800",
            "required": true
          }
        },
        "doc": "Set the message expiration timer for a thread. Expiration must be specified in seconds, set to 0 to disable timer"
      },
      "SetDeviceNameRequest": {
        "fields": {
          "account": {
            "type": "String",
            "doc": "The account to set the device name of",
            "example": "\"+12024561414\"",
            "required": true
          },
          "device_name": {
            "type": "String",
            "doc": "The device name"
          }
        },
        "doc": "set this device's name. This will show up on the mobile device on the same account under "
      },
      "GetAllIdentities": {
        "fields": {
          "account": {
            "type": "String",
            "doc": "The account to interact with",
            "example": "\"+12024561414\"",
            "required": true
          }
        },
        "doc": "get all known identity keys"
      },
      "AllIdentityKeyList": {
        "fields": {
          "identity_keys": {
            "list": true,
            "type": "IdentityKeyList",
            "version": "v1"
          }
        }
      },
      "SubscribeRequest": {
        "fields": {
          "account": {
            "type": "String",
            "doc": "The account to subscribe to incoming message for",
            "example": "\"+12024561414\"",
            "required": true
          }
        },
        "doc": "receive incoming messages. After making a subscribe request, incoming messages will be sent to the client encoded as ClientMessageWrapper. Send an unsubscribe request or disconnect from the socket to stop receiving messages."
      },
      "UnsubscribeRequest": {
        "fields": {
          "account": {
            "type": "String",
            "doc": "The account to unsubscribe from",
            "example": "\"+12024561414\"",
            "required": true
          }
        },
        "doc": "See subscribe for more info"
      },
      "RemoteDeleteRequest": {
        "fields": {
          "account": {
            "type": "String",
            "doc": "the account to use",
            "example": "\"+12024561414\"",
            "required": true
          },
          "address": {
            "type": "JsonAddress",
            "version": "v1",
            "doc": "the address to send the delete message to. should match address the message to be deleted was sent to. required if group is not set."
          },
          "group": {
            "type": "String",
            "doc": "the group to send the delete message to. should match group the message to be deleted was sent to. required if address is not set.",
            "example": "\"EdSqI90cS0UomDpgUXOlCoObWvQOXlH5G3Z2d3f4ayE=\""
          },
          "timestamp": {
            "type": "long",
            "required": true
          }
        },
        "doc": "delete a message previously sent"
      },
      "AddServerRequest": {
        "fields": {
          "server": {
            "type": "Server",
            "version": "v1",
            "required": true
          }
        },
        "doc": "add a new server to connect to. Returns the new server's UUID."
      },
      "GetServersRequest": {
        "fields": {}
      },
      "ServerList": {
        "fields": {
          "servers": {
            "list": true,
            "type": "Server",
            "version": "v1"
          }
        }
      },
      "RemoveServerRequest": {
        "fields": {
          "uuid": {
            "type": "String"
          }
        }
      },
      "SendPaymentRequest": {
        "fields": {
          "account": {
            "type": "String",
            "doc": "the account to use",
            "example": "\"+12024561414\"",
            "required": true
          },
          "address": {
            "type": "JsonAddress",
            "version": "v1",
            "doc": "the address to send the payment message to",
            "required": true
          },
          "payment": {
            "type": "Payment",
            "version": "v1",
            "required": true
          },
          "when": {
            "type": "Long"
          }
        },
        "doc": "send a mobilecoin payment"
      },
      "RemoteConfigRequest": {
        "fields": {
          "account": {
            "type": "String",
            "doc": "The account to use to retrieve the remote config",
            "example": "\"+12024561414\"",
            "required": true
          }
        },
        "doc": "Retrieves the remote config (feature flags) from the server."
      },
      "RemoteConfigList": {
        "fields": {
          "config": {
            "list": true,
            "type": "RemoteConfig",
            "version": "v1"
          }
        }
      },
      "JsonDataMessage": {
        "fields": {
          "timestamp": {
            "type": "long",
            "doc": "the timestamp that the message was sent at, according to the sender's device. This is used to uniquely identify this message for things like reactions and quotes.",
            "example": "1615576442475"
          },
          "attachments": {
            "list": true,
            "type": "JsonAttachment",
            "version": "v0",
            "doc": "files attached to the incoming message"
          },
          "body": {
            "type": "String",
            "doc": "the text body of the incoming message.",
            "example": "\"hello\""
          },
          "group": {
            "type": "JsonGroupInfo",
            "version": "v1",
            "doc": "if the incoming message was sent to a v1 group, information about that group will be here"
          },
          "groupV2": {
            "type": "JsonGroupV2Info",
            "version": "v1",
            "doc": "if the incoming message was sent to a v2 group, basic identifying information about that group will be here. If group information changes, JsonGroupV2Info.revision is incremented. If the group revision is higher than previously seen, a client can retrieve the group information by calling get_group."
          },
          "endSession": {
            "type": "boolean"
          },
          "expiresInSeconds": {
            "type": "int",
            "doc": "the expiry timer on the incoming message. Clients should delete records of the message within this number of seconds"
          },
          "profileKeyUpdate": {
            "type": "boolean"
          },
          "quote": {
            "type": "JsonQuote",
            "version": "v1",
            "doc": "if the incoming message is a quote or reply to another message, this will contain information about that message"
          },
          "contacts": {
            "list": true,
            "type": "SharedContact",
            "version": "v0",
            "doc": "if the incoming message has a shared contact, the contact's information will be here"
          },
          "previews": {
            "list": true,
            "type": "JsonPreview",
            "version": "v0",
            "doc": "if the incoming message has a link preview, information about that preview will be here"
          },
          "sticker": {
            "type": "JsonSticker",
            "version": "v0",
            "doc": "if the incoming message is a sticker, information about the sicker will be here"
          },
          "viewOnce": {
            "type": "boolean",
            "doc": "indicates the message is a view once message. View once messages typically include no body and a single image attachment. Official Signal clients will prevent the user from saving the image, and once the user has viewed the image once they will destroy the image."
          },
          "reaction": {
            "type": "JsonReaction",
            "version": "v1",
            "doc": "if the message adds or removes a reaction to another message, this will indicate what change is being made"
          },
          "remoteDelete": {
            "type": "RemoteDelete",
            "version": "v1",
            "doc": "if the inbound message is deleting a previously sent message, indicates which message should be deleted"
          },
          "mentions": {
            "list": true,
            "type": "JsonMention",
            "version": "v1",
            "doc": "list of mentions in the message"
          },
          "payment": {
            "type": "Payment",
            "version": "v1",
            "doc": "details about the MobileCoin payment attached to the message, if present"
          },
          "group_call_update": {
            "type": "String",
            "doc": "the eraId string from a group call message update"
          }
        }
      },
      "JsonSyncMessage": {
        "fields": {
          "sent": {
            "type": "JsonSentTranscriptMessage",
            "version": "v1"
          },
          "contacts": {
            "type": "JsonAttachment",
            "version": "v0"
          },
          "contactsComplete": {
            "type": "boolean"
          },
          "groups": {
            "type": "JsonAttachment",
            "version": "v0"
          },
          "blockedList": {
            "type": "JsonBlockedListMessage",
            "version": "v1"
          },
          "request": {
            "type": "String"
          },
          "readMessages": {
            "list": true,
            "type": "JsonReadMessage",
            "version": "v1"
          },
          "viewOnceOpen": {
            "type": "JsonViewOnceOpenMessage",
            "version": "v1"
          },
          "verified": {
            "type": "JsonVerifiedMessage",
            "version": "v1"
          },
          "configuration": {
            "type": "ConfigurationMessage",
            "version": "v0"
          },
          "stickerPackOperations": {
            "list": true,
            "type": "JsonStickerPackOperationMessage",
            "version": "v0"
          },
          "fetchType": {
            "type": "String"
          },
          "messageRequestResponse": {
            "type": "JsonMessageRequestResponseMessage",
            "version": "v1"
          }
        }
      },
      "CallMessage": {
        "fields": {
          "offer_message": {
            "type": "OfferMessage",
            "version": "v1"
          },
          "answer_message": {
            "type": "AnswerMessage",
            "version": "v1"
          },
          "busy_message": {
            "type": "BusyMessage",
            "version": "v1"
          },
          "hangup_message": {
            "type": "HangupMessage",
            "version": "v1"
          },
          "ice_update_message": {
            "list": true,
            "type": "IceUpdateMessage",
            "version": "v1"
          },
          "destination_device_id": {
            "type": "Integer"
          },
          "multi_ring": {
            "type": "boolean"
          }
        }
      },
      "ReceiptMessage": {
        "fields": {
          "type": {
            "type": "String",
            "doc": "options: UNKNOWN, DELIVERY, READ, VIEWED"
          },
          "timestamps": {
            "list": true,
            "type": "Long"
          },
          "when": {
            "type": "long"
          }
        }
      },
      "TypingMessage": {
        "fields": {
          "action": {
            "type": "String"
          },
          "timestamp": {
            "type": "long"
          },
          "group_id": {
            "type": "String"
          }
        }
      },
      "JsonQuote": {
        "fields": {
          "id": {
            "type": "long",
            "doc": "the client timestamp of the message being quoted",
            "example": "1615576442475"
          },
          "author": {
            "type": "JsonAddress",
            "version": "v1",
            "doc": "the author of the message being quoted"
          },
          "text": {
            "type": "String",
            "doc": "the body of the message being quoted",
            "example": "\"hey ￼ what's up?\""
          },
          "attachments": {
            "list": true,
            "type": "JsonQuotedAttachment",
            "version": "v0",
            "doc": "list of files attached to the quoted message"
          },
          "mentions": {
            "list": true,
            "type": "JsonMention",
            "version": "v1",
            "doc": "list of mentions in the quoted message"
          }
        },
        "doc": "A quote is a reply to a previous message. ID is the sent time of the message being replied to"
      },
      "JsonMention": {
        "fields": {
          "uuid": {
            "type": "String",
            "doc": "The UUID of the account being mentioned",
            "example": "\"aeed01f0-a234-478e-8cf7-261c283151e7\""
          },
          "start": {
            "type": "int",
            "doc": "The number of characters in that the mention starts at. Note that due to a quirk of how signald encodes JSON, if this value is 0 (for example if the first character in the message is the mention) the field won't show up.",
            "example": "4"
          },
          "length": {
            "type": "int",
            "doc": "The length of the mention represented in the message. Seems to always be 1 but included here in case that changes.",
            "example": "1"
          }
        }
      },
      "JsonSendMessageResult": {
        "fields": {
          "address": {
            "type": "JsonAddress",
            "version": "v1"
          },
          "success": {
            "type": "Success",
            "version": "v0"
          },
          "networkFailure": {
            "type": "boolean",
            "example": "false"
          },
          "unregisteredFailure": {
            "type": "boolean",
            "example": "false"
          },
          "identityFailure": {
            "type": "String"
          }
        }
      },
      "JsonReaction": {
        "fields": {
          "emoji": {
            "type": "String",
            "doc": "the emoji to react with",
            "example": "\"👍\""
          },
          "remove": {
            "type": "boolean",
            "doc": "set to true to remove the reaction. requires emoji be set to previously reacted emoji"
          },
          "targetAuthor": {
            "type": "JsonAddress",
            "version": "v1",
            "doc": "the author of the message being reacted to"
          },
          "targetSentTimestamp": {
            "type": "long",
            "doc": "the client timestamp of the message being reacted to",
            "example": "1615576442475"
          }
        }
      },
      "GroupAccessControl": {
        "fields": {
          "link": {
            "type": "String",
            "doc": "UNSATISFIABLE when the group link is disabled, ADMINISTRATOR when the group link is enabled but an administrator must approve new members, ANY when the group link is enabled and no approval is required",
            "example": "\"ANY\""
          },
          "attributes": {
            "type": "String",
            "doc": "who can edit group info"
          },
          "members": {
            "type": "String",
            "doc": "who can add members"
          }
        },
        "doc": "group access control settings. Options for each controlled action are: UNKNOWN, ANY, MEMBER, ADMINISTRATOR, UNSATISFIABLE and UNRECOGNIZED"
      },
      "GroupMember": {
        "fields": {
          "uuid": {
            "type": "String",
            "example": "\"aeed01f0-a234-478e-8cf7-261c283151e7\""
          },
          "role": {
            "type": "String",
            "doc": "possible values are: UNKNOWN, DEFAULT, ADMINISTRATOR and UNRECOGNIZED",
            "example": "\"DEFAULT\""
          },
          "joined_revision": {
            "type": "int"
          }
        }
      },
      "DeviceInfo": {
        "fields": {
          "id": {
            "type": "long"
          },
          "name": {
            "type": "String"
          },
          "created": {
            "type": "long"
          },
          "lastSeen": {
            "type": "long"
          }
        }
      },
      "JsonGroupInfo": {
        "fields": {
          "groupId": {
            "type": "String"
          },
          "members": {
            "list": true,
            "type": "JsonAddress",
            "version": "v1"
          },
          "name": {
            "type": "String"
          },
          "type": {
            "type": "String"
          },
          "avatarId": {
            "type": "long"
          }
        },
        "doc": "information about a legacy group"
      },
      "Capabilities": {
        "fields": {
          "gv2": {
            "type": "boolean"
          },
          "storage": {
            "type": "boolean"
          },
          "gv1-migration": {
            "type": "boolean"
          }
        }
      },
      "IdentityKey": {
        "fields": {
          "added": {
            "type": "long",
            "doc": "the first time this identity key was seen"
          },
          "safety_number": {
            "type": "String",
            "example": "\"373453558586758076680580548714989751943247272727416091564451\""
          },
          "qr_code_data": {
            "type": "String",
            "doc": "base64-encoded QR code data"
          },
          "trust_level": {
            "type": "String",
            "doc": "One of TRUSTED_UNVERIFIED, TRUSTED_VERIFIED or UNTRUSTED"
          }
        }
      },
      "Server": {
        "fields": {
          "uuid": {
            "type": "UUID",
            "doc": "A unique identifier for the server, referenced when adding accounts. Must be a valid UUID. Will be generated if not specified when creating."
          },
          "proxy": {
            "type": "String"
          },
          "ca": {
            "type": "String"
          },
          "service_url": {
            "type": "String"
          },
          "cdn_urls": {
            "list": true,
            "type": "ServerCDN",
            "version": "v1"
          },
          "contact_discovery_url": {
            "type": "String"
          },
          "key_backup_url": {
            "type": "String"
          },
          "storage_url": {
            "type": "String"
          },
          "zk_param": {
            "type": "String",
            "doc": "base64 encoded ZKGROUP_SERVER_PUBLIC_PARAMS value"
          },
          "unidentified_sender_root": {
            "type": "String"
          }
        },
        "doc": "a Signal server"
      },
      "Payment": {
        "fields": {
          "receipt": {
            "type": "String",
            "doc": "base64 encoded payment receipt data. This is a protobuf value which can be decoded as the Receipt object described in https://github.com/mobilecoinfoundation/mobilecoin/blob/master/api/proto/external.proto"
          },
          "note": {
            "type": "String",
            "doc": "note attached to the payment"
          }
        },
        "doc": "details about a MobileCoin payment"
      },
      "RemoteConfig": {
        "fields": {
          "name": {
            "type": "String",
            "doc": "The name of this remote config entry. These names may be prefixed with the platform type (\"android.\", \"ios.\", \"desktop.\", etc.) Typically, clients only handle the relevant configs for its platform, hardcoding the names it cares about handling and ignoring the rest.",
            "example": "desktop.mediaQuality.levels"
          },
          "value": {
            "type": "String",
            "doc": "The value for this remote config entry. Even though this is a string, it could be a boolean as a string, an integer/long value, a comma-delimited list, etc. Clients usually consume this by hardcoding the feature flagsit should track in the app and assuming that the server will send the type that the client expects. If an unexpected type occurs, it falls back to a default value.",
            "example": "1:2,61:2,81:2,82:2,65:2,31:2,47:2,41:2,32:2,385:2,971:2,974:2,49:2,33:2,*:1"
          }
        },
        "doc": "A remote config (feature flag) entry."
      },
      "RemoteDelete": {
        "fields": {
          "target_sent_timestamp": {
            "type": "long"
          }
        }
      },
      "JsonSentTranscriptMessage": {
        "fields": {
          "destination": {
            "type": "JsonAddress",
            "version": "v1"
          },
          "timestamp": {
            "type": "long",
            "example": "1615576442475"
          },
          "expirationStartTimestamp": {
            "type": "long"
          },
          "message": {
            "type": "JsonDataMessage",
            "version": "v1"
          },
          "unidentifiedStatus": {
            "type": "Map"
          },
          "isRecipientUpdate": {
            "type": "boolean"
          }
        }
      },
      "JsonBlockedListMessage": {
        "fields": {
          "addresses": {
            "list": true,
            "type": "JsonAddress",
            "version": "v1"
          },
          "groupIds": {
            "list": true,
            "type": "String"
          }
        }
      },
      "JsonReadMessage": {
        "fields": {
          "sender": {
            "type": "JsonAddress",
            "version": "v1"
          },
          "timestamp": {
            "type": "long",
            "example": "1615576442475"
          }
        }
      },
      "JsonViewOnceOpenMessage": {
        "fields": {
          "sender": {
            "type": "JsonAddress",
            "version": "v1"
          },
          "timestamp": {
            "type": "long",
            "example": "1615576442475"
          }
        }
      },
      "JsonVerifiedMessage": {
        "fields": {
          "destination": {
            "type": "JsonAddress",
            "version": "v1"
          },
          "identityKey": {
            "type": "String"
          },
          "verified": {
            "type": "String"
          },
          "timestamp": {
            "type": "long"
          }
        }
      },
      "JsonMessageRequestResponseMessage": {
        "fields": {
          "person": {
            "type": "JsonAddress",
            "version": "v1"
          },
          "groupId": {
            "type": "String"
          },
          "type": {
            "type": "String"
          }
        }
      },
      "OfferMessage": {
        "fields": {
          "id": {
            "type": "long"
          },
          "sdp": {
            "type": "String"
          },
          "type": {
            "type": "String"
          },
          "opaque": {
            "type": "String"
          }
        }
      },
      "AnswerMessage": {
        "fields": {
          "id": {
            "type": "long"
          },
          "sdp": {
            "type": "String"
          },
          "opaque": {
            "type": "String"
          }
        }
      },
      "BusyMessage": {
        "fields": {
          "id": {
            "type": "long"
          }
        }
      },
      "HangupMessage": {
        "fields": {
          "id": {
            "type": "long"
          },
          "type": {
            "type": "String"
          },
          "legacy": {
            "type": "boolean"
          },
          "device_id": {
            "type": "int"
          }
        }
      },
      "IceUpdateMessage": {
        "fields": {
          "id": {
            "type": "long"
          },
          "opaque": {
            "type": "String"
          },
          "sdp": {
            "type": "String"
          }
        }
      },
      "ServerCDN": {
        "fields": {
          "number": {
            "type": "int"
          },
          "url": {
            "type": "String"
          }
        }
      }
    },
    "v0": {
      "JsonAccountList": {
        "fields": {
          "accounts": {
            "list": true,
            "type": "JsonAccount",
            "version": "v0"
          }
        },
        "deprecated": true,
        "removal_date": 1641027661
      },
      "JsonMessageEnvelope": {
        "fields": {
          "username": {
            "type": "String",
            "example": "\"+12024561414\""
          },
          "uuid": {
            "type": "String",
            "example": "\"0cc10e61-d64c-4dbc-b51c-334f7dd45a4a\""
          },
          "source": {
            "type": "JsonAddress",
            "version": "v0"
          },
          "sourceDevice": {
            "type": "int"
          },
          "type": {
            "type": "String"
          },
          "relay": {
            "type": "String"
          },
          "timestamp": {
            "type": "long",
            "example": "1615576442475"
          },
          "timestampISO": {
            "type": "String"
          },
          "serverTimestamp": {
            "type": "long"
          },
          "serverDeliveredTimestamp": {
            "type": "long",
            "example": "161557644247580"
          },
          "hasLegacyMessage": {
            "type": "boolean"
          },
          "hasContent": {
            "type": "boolean"
          },
          "isUnidentifiedSender": {
            "type": "boolean"
          },
          "dataMessage": {
            "type": "JsonDataMessage",
            "version": "v0"
          },
          "syncMessage": {
            "type": "JsonSyncMessage",
            "version": "v0"
          },
          "callMessage": {
            "type": "JsonCallMessage",
            "version": "v0"
          },
          "receipt": {
            "type": "JsonReceiptMessage",
            "version": "v0"
          },
          "typing": {
            "type": "JsonTypingMessage",
            "version": "v0"
          }
        },
        "deprecated": true,
        "removal_date": 1641027661
      },
      "JsonCallMessage": {
        "fields": {
          "offerMessage": {
            "type": "OfferMessage",
            "version": "v0"
          },
          "answerMessage": {
            "type": "AnswerMessage",
            "version": "v0"
          },
          "busyMessage": {
            "type": "BusyMessage",
            "version": "v0"
          },
          "hangupMessage": {
            "type": "HangupMessage",
            "version": "v0"
          },
          "iceUpdateMessages": {
            "list": true,
            "type": "IceUpdateMessage",
            "version": "v0"
          },
          "destinationDeviceId": {
            "type": "int"
          },
          "isMultiRing": {
            "type": "boolean"
          }
        },
        "deprecated": true,
        "removal_date": 1641027661
      },
      "JsonReceiptMessage": {
        "fields": {
          "type": {
            "type": "String"
          },
          "timestamps": {
            "list": true,
            "type": "Long"
          },
          "when": {
            "type": "long"
          }
        },
        "deprecated": true,
        "removal_date": 1641027661
      },
      "JsonTypingMessage": {
        "fields": {
          "action": {
            "type": "String"
          },
          "timestamp": {
            "type": "long"
          },
          "groupId": {
            "type": "String"
          }
        },
        "deprecated": true,
        "removal_date": 1641027661
      },
      "JsonAccount": {
        "fields": {
          "deviceId": {
            "type": "int"
          },
          "username": {
            "type": "String"
          },
          "filename": {
            "type": "String"
          },
          "uuid": {
            "type": "String"
          },
          "registered": {
            "type": "boolean"
          },
          "has_keys": {
            "type": "boolean"
          },
          "subscribed": {
            "type": "boolean"
          }
        },
        "deprecated": true,
        "removal_date": 1641027661
      },
      "JsonAddress": {
        "fields": {
          "number": {
            "type": "String"
          },
          "uuid": {
            "type": "UUID"
          },
          "relay": {
            "type": "String"
          }
        },
        "deprecated": true,
        "removal_date": 1641027661
      },
      "JsonDataMessage": {
        "fields": {
          "timestamp": {
            "type": "long",
            "doc": "the timestamp that the message was sent at, according to the sender's device. This is used to uniquely identify this message for things like reactions and quotes.",
            "example": "1615576442475"
          },
          "attachments": {
            "list": true,
            "type": "JsonAttachment",
            "version": "v0",
            "doc": "files attached to the incoming message"
          },
          "body": {
            "type": "String",
            "doc": "the text body of the incoming message.",
            "example": "\"hello\""
          },
          "group": {
            "type": "JsonGroupInfo",
            "version": "v0",
            "doc": "if the incoming message was sent to a v1 group, information about that group will be here"
          },
          "groupV2": {
            "type": "JsonGroupV2Info",
            "version": "v0",
            "doc": "is the incoming message was sent to a v2 group, basic identifying information about that group will be here. For full information, use list_groups"
          },
          "endSession": {
            "type": "boolean"
          },
          "expiresInSeconds": {
            "type": "int",
            "doc": "the expiry timer on the incoming message. Clients should delete records of the message within this number of seconds"
          },
          "profileKeyUpdate": {
            "type": "boolean"
          },
          "quote": {
            "type": "JsonQuote",
            "version": "v0",
            "doc": "if the incoming message is a quote or reply to another message, this will contain information about that message"
          },
          "contacts": {
            "list": true,
            "type": "SharedContact",
            "version": "v0",
            "doc": "if the incoming message has a shared contact, the contact's information will be here"
          },
          "previews": {
            "list": true,
            "type": "JsonPreview",
            "version": "v0",
            "doc": "if the incoming message has a link preview, information about that preview will be here"
          },
          "sticker": {
            "type": "JsonSticker",
            "version": "v0",
            "doc": "if the incoming message is a sticker, information about the sicker will be here"
          },
          "viewOnce": {
            "type": "boolean",
            "doc": "indicates the message is a view once message. View once messages typically include no body and a single image attachment. Official Signal clients will prevent the user from saving the image, and once the user has viewed the image once they will destroy the image."
          },
          "reaction": {
            "type": "JsonReaction",
            "version": "v0",
            "doc": "if the message adds or removes a reaction to another message, this will indicate what change is being made"
          },
          "remoteDelete": {
            "type": "RemoteDelete",
            "version": "v0",
            "doc": "if the inbound message is deleting a previously sent message, indicates which message should be deleted"
          },
          "mentions": {
            "list": true,
            "type": "JsonMention",
            "version": "v0",
            "doc": "list of mentions in the message"
          }
        },
        "deprecated": true,
        "removal_date": 1641027661
      },
      "JsonSyncMessage": {
        "fields": {
          "sent": {
            "type": "JsonSentTranscriptMessage",
            "version": "v0"
          },
          "contacts": {
            "type": "JsonAttachment",
            "version": "v0"
          },
          "contactsComplete": {
            "type": "boolean"
          },
          "groups": {
            "type": "JsonAttachment",
            "version": "v0"
          },
          "blockedList": {
            "type": "JsonBlockedListMessage",
            "version": "v0"
          },
          "request": {
            "type": "String"
          },
          "readMessages": {
            "list": true,
            "type": "JsonReadMessage",
            "version": "v0"
          },
          "viewOnceOpen": {
            "type": "JsonViewOnceOpenMessage",
            "version": "v0"
          },
          "verified": {
            "type": "JsonVerifiedMessage",
            "version": "v0"
          },
          "configuration": {
            "type": "ConfigurationMessage",
            "version": "v0"
          },
          "stickerPackOperations": {
            "list": true,
            "type": "JsonStickerPackOperationMessage",
            "version": "v0"
          },
          "fetchType": {
            "type": "String"
          },
          "messageRequestResponse": {
            "type": "JsonMessageRequestResponseMessage",
            "version": "v0"
          }
        },
        "deprecated": true,
        "removal_date": 1641027661
      },
      "JsonAttachment": {
        "fields": {
          "contentType": {
            "type": "String"
          },
          "id": {
            "type": "String"
          },
          "size": {
            "type": "int"
          },
          "storedFilename": {
            "type": "String"
          },
          "filename": {
            "type": "String"
          },
          "customFilename": {
            "type": "String"
          },
          "caption": {
            "type": "String"
          },
          "width": {
            "type": "int"
          },
          "height": {
            "type": "int"
          },
          "voiceNote": {
            "type": "boolean"
          },
          "key": {
            "type": "String"
          },
          "digest": {
            "type": "String"
          },
          "blurhash": {
            "type": "String"
          }
        },
        "deprecated": true,
        "removal_date": 1641027661
      },
      "SharedContact": {
        "fields": {
          "name": {
            "type": "Name",
            "version": "v0"
          },
          "avatar": {
            "type": "Optional",
            "version": "v0"
          },
          "phone": {
            "type": "Optional",
            "version": "v0"
          },
          "email": {
            "type": "Optional",
            "version": "v0"
          },
          "address": {
            "type": "Optional",
            "version": "v0"
          },
          "organization": {
            "type": "Optional",
            "version": "v0"
          }
        }
      },
      "JsonPreview": {
        "fields": {
          "url": {
            "type": "String"
          },
          "title": {
            "type": "String"
          },
          "attachment": {
            "type": "JsonAttachment",
            "version": "v0"
          }
        },
        "deprecated": true,
        "removal_date": 1641027661
      },
      "JsonSticker": {
        "fields": {
          "packID": {
            "type": "String"
          },
          "packKey": {
            "type": "String"
          },
          "stickerID": {
            "type": "int"
          },
          "attachment": {
            "type": "JsonAttachment",
            "version": "v0"
          },
          "image": {
            "type": "String"
          }
        },
        "deprecated": true,
        "removal_date": 1641027661
      },
      "ConfigurationMessage": {
        "fields": {
          "readReceipts": {
            "type": "Optional",
            "version": "v0"
          },
          "unidentifiedDeliveryIndicators": {
            "type": "Optional",
            "version": "v0"
          },
          "typingIndicators": {
            "type": "Optional",
            "version": "v0"
          },
          "linkPreviews": {
            "type": "Optional",
            "version": "v0"
          }
        }
      },
      "JsonStickerPackOperationMessage": {
        "fields": {
          "packID": {
            "type": "String"
          },
          "packKey": {
            "type": "String"
          },
          "type": {
            "type": "String"
          }
        },
        "deprecated": true,
        "removal_date": 1641027661
      },
      "OfferMessage": {
        "fields": {
          "id": {
            "type": "long"
          },
          "sdp": {
            "type": "String"
          },
          "type": {
            "type": "Type",
            "version": "v0"
          },
          "opaque": {
            "type": "String"
          }
        }
      },
      "AnswerMessage": {
        "fields": {
          "id": {
            "type": "long"
          },
          "sdp": {
            "type": "String"
          },
          "opaque": {
            "type": "String"
          }
        }
      },
      "BusyMessage": {
        "fields": {
          "id": {
            "type": "long"
          }
        }
      },
      "HangupMessage": {
        "fields": {
          "id": {
            "type": "long"
          },
          "type": {
            "type": "Type",
            "version": "v0"
          },
          "deviceId": {
            "type": "int"
          },
          "legacy": {
            "type": "boolean"
          }
        }
      },
      "IceUpdateMessage": {
        "fields": {
          "id": {
            "type": "long"
          },
          "opaque": {
            "type": "String"
          },
          "sdp": {
            "type": "String"
          }
        }
      },
      "JsonGroupInfo": {
        "fields": {
          "groupId": {
            "type": "String"
          },
          "members": {
            "list": true,
            "type": "JsonAddress",
            "version": "v0"
          },
          "name": {
            "type": "String"
          },
          "type": {
            "type": "String"
          },
          "avatarId": {
            "type": "long"
          }
        },
        "deprecated": true,
        "removal_date": 1641027661
      },
      "JsonGroupV2Info": {
        "fields": {
          "id": {
            "type": "String",
            "example": "\"EdSqI90cS0UomDpgUXOlCoObWvQOXlH5G3Z2d3f4ayE=\""
          },
          "revision": {
            "type": "int",
            "example": "5"
          },
          "title": {
            "type": "String",
            "example": "\"Parkdale Run Club\""
          },
          "description": {
            "type": "String"
          },
          "avatar": {
            "type": "String",
            "doc": "path to the group's avatar on local disk, if available",
            "example": "\"/var/lib/signald/avatars/group-EdSqI90cS0UomDpgUXOlCoObWvQOXlH5G3Z2d3f4ayE=\""
          },
          "timer": {
            "type": "int",
            "example": "604800"
          },
          "members": {
            "list": true,
            "type": "JsonAddress",
            "version": "v0"
          },
          "pendingMembers": {
            "list": true,
            "type": "JsonAddress",
            "version": "v0"
          },
          "requestingMembers": {
            "list": true,
            "type": "JsonAddress",
            "version": "v0"
          },
          "inviteLink": {
            "type": "String",
            "doc": "the signal.group link, if applicable"
          },
          "accessControl": {
            "type": "GroupAccessControl",
            "version": "v0",
            "doc": "current access control settings for this group"
          },
          "memberDetail": {
            "list": true,
            "type": "GroupMember",
            "version": "v0",
            "doc": "detailed member list"
          },
          "pendingMemberDetail": {
            "list": true,
            "type": "GroupMember",
            "version": "v0",
            "doc": "detailed pending member list"
          }
        },
        "deprecated": true,
        "removal_date": 1641027661
      },
      "JsonQuote": {
        "fields": {
          "id": {
            "type": "long",
            "doc": "the client timestamp of the message being quoted",
            "example": "1615576442475"
          },
          "author": {
            "type": "JsonAddress",
            "version": "v0",
            "doc": "the author of the message being quoted"
          },
          "text": {
            "type": "String",
            "doc": "the body of the message being quoted",
            "example": "\"hey ￼ what's up?\""
          },
          "attachments": {
            "list": true,
            "type": "JsonQuotedAttachment",
            "version": "v0",
            "doc": "list of files attached to the quoted message"
          },
          "mentions": {
            "list": true,
            "type": "JsonMention",
            "version": "v0",
            "doc": "list of mentions in the quoted message"
          }
        },
        "doc": "A quote is a reply to a previous message. ID is the sent time of the message being replied to",
        "deprecated": true,
        "removal_date": 1641027661
      },
      "JsonReaction": {
        "fields": {
          "emoji": {
            "type": "String",
            "doc": "the emoji to react with",
            "example": "\"👍\""
          },
          "remove": {
            "type": "boolean",
            "doc": "set to true to remove the reaction. requires emoji be set to previously reacted emoji"
          },
          "targetAuthor": {
            "type": "JsonAddress",
            "version": "v0",
            "doc": "the author of the message being reacted to"
          },
          "targetSentTimestamp": {
            "type": "long",
            "doc": "the client timestamp of the message being reacted to",
            "example": "1615576442475"
          }
        },
        "deprecated": true,
        "removal_date": 1641027661
      },
      "RemoteDelete": {
        "fields": {
          "targetSentTimestamp": {
            "type": "long"
          }
        }
      },
      "JsonMention": {
        "fields": {
          "uuid": {
            "type": "String",
            "doc": "The UUID of the account being mentioned",
            "example": "\"aeed01f0-a234-478e-8cf7-261c283151e7\""
          },
          "start": {
            "type": "int",
            "doc": "The number of characters in that the mention starts at. Note that due to a quirk of how signald encodes JSON, if this value is 0 (for example if the first character in the message is the mention) the field won't show up.",
            "example": "4"
          },
          "length": {
            "type": "int",
            "doc": "The length of the mention represented in the message. Seems to always be 1 but included here in case that changes.",
            "example": "1"
          }
        },
        "deprecated": true,
        "removal_date": 1641027661
      },
      "JsonSentTranscriptMessage": {
        "fields": {
          "destination": {
            "type": "JsonAddress",
            "version": "v0"
          },
          "timestamp": {
            "type": "long",
            "example": "1615576442475"
          },
          "expirationStartTimestamp": {
            "type": "long"
          },
          "message": {
            "type": "JsonDataMessage",
            "version": "v0"
          },
          "unidentifiedStatus": {
            "type": "Map"
          },
          "isRecipientUpdate": {
            "type": "boolean"
          }
        },
        "deprecated": true,
        "removal_date": 1641027661
      },
      "JsonBlockedListMessage": {
        "fields": {
          "addresses": {
            "list": true,
            "type": "JsonAddress",
            "version": "v0"
          },
          "groupIds": {
            "list": true,
            "type": "String"
          }
        },
        "deprecated": true,
        "removal_date": 1641027661
      },
      "JsonReadMessage": {
        "fields": {
          "sender": {
            "type": "JsonAddress",
            "version": "v0"
          },
          "timestamp": {
            "type": "long",
            "example": "1615576442475"
          }
        },
        "deprecated": true,
        "removal_date": 1641027661
      },
      "JsonViewOnceOpenMessage": {
        "fields": {
          "sender": {
            "type": "JsonAddress",
            "version": "v0"
          },
          "timestamp": {
            "type": "long",
            "example": "1615576442475"
          }
        },
        "deprecated": true,
        "removal_date": 1641027661
      },
      "JsonVerifiedMessage": {
        "fields": {
          "destination": {
            "type": "JsonAddress",
            "version": "v0"
          },
          "identityKey": {
            "type": "String"
          },
          "verified": {
            "type": "String"
          },
          "timestamp": {
            "type": "long"
          }
        },
        "deprecated": true,
        "removal_date": 1641027661
      },
      "JsonMessageRequestResponseMessage": {
        "fields": {
          "person": {
            "type": "JsonAddress",
            "version": "v0"
          },
          "groupId": {
            "type": "String"
          },
          "type": {
            "type": "String"
          }
        },
        "deprecated": true,
        "removal_date": 1641027661
      },
      "JsonQuotedAttachment": {
        "fields": {
          "contentType": {
            "type": "String"
          },
          "fileName": {
            "type": "String"
          },
          "thumbnail": {
            "type": "JsonAttachment",
            "version": "v0"
          }
        },
        "deprecated": true,
        "removal_date": 1641027661
      },
      "Success": {
        "fields": {
          "unidentified": {
            "type": "boolean"
          },
          "needsSync": {
            "type": "boolean"
          },
          "duration": {
            "type": "long"
          }
        }
      },
      "Name": {
        "fields": {
          "display": {
            "type": "Optional",
            "version": "v0"
          },
          "given": {
            "type": "Optional",
            "version": "v0"
          },
          "family": {
            "type": "Optional",
            "version": "v0"
          },
          "prefix": {
            "type": "Optional",
            "version": "v0"
          },
          "suffix": {
            "type": "Optional",
            "version": "v0"
          },
          "middle": {
            "type": "Optional",
            "version": "v0"
          }
        }
      },
      "Optional": {
        "fields": {
          "present": {
            "type": "boolean"
          }
        }
      },
      "Type": {
        "fields": {}
      },
      "GroupAccessControl": {
        "fields": {
          "link": {
            "type": "String",
            "doc": "UNSATISFIABLE when the group link is disabled, ADMINISTRATOR when the group link is enabled but an administrator must approve new members, ANY when the group link is enabled and no approval is required",
            "example": "\"ANY\""
          },
          "attributes": {
            "type": "String",
            "doc": "who can edit group info"
          },
          "members": {
            "type": "String",
            "doc": "who can add members"
          }
        },
        "doc": "group access control settings. Options for each controlled action are: UNKNOWN, ANY, MEMBER, ADMINISTRATOR, UNSATISFIABLE and UNRECOGNIZED",
        "deprecated": true,
        "removal_date": 1641027661
      },
      "GroupMember": {
        "fields": {
          "uuid": {
            "type": "String",
            "example": "\"aeed01f0-a234-478e-8cf7-261c283151e7\""
          },
          "role": {
            "type": "String",
            "doc": "possible values are: UNKNOWN, DEFAULT, ADMINISTRATOR and UNRECOGNIZED",
            "example": "\"DEFAULT\""
          },
          "joined_revision": {
            "type": "int"
          }
        },
        "deprecated": true,
        "removal_date": 1641027661
      }
    }
  },
  "actions": {
    "v1": {
      "send": {
        "request": "SendRequest",
        "response": "SendResponse"
      },
      "react": {
        "request": "ReactRequest",
        "response": "SendResponse",
        "doc": "react to a previous message"
      },
      "version": {
        "request": "VersionRequest",
        "response": "JsonVersionMessage"
      },
      "accept_invitation": {
        "request": "AcceptInvitationRequest",
        "response": "JsonGroupV2Info",
        "doc": "Accept a v2 group invitation. Note that you must have a profile name set to join groups."
      },
      "approve_membership": {
        "request": "ApproveMembershipRequest",
        "response": "JsonGroupV2Info",
        "doc": "approve a request to join a group"
      },
      "get_group": {
        "request": "GetGroupRequest",
        "response": "JsonGroupV2Info",
        "doc": "Query the server for the latest state of a known group. If no account in signald is a member of the group (anymore), an error with error_type: 'UnknownGroupException' is returned."
      },
      "get_linked_devices": {
        "request": "GetLinkedDevicesRequest",
        "response": "LinkedDevices",
        "doc": "list all linked devices on a Signal account"
      },
      "join_group": {
        "request": "JoinGroupRequest",
        "response": "JsonGroupJoinInfo",
        "doc": "Join a group using the a signal.group URL. Note that you must have a profile name set to join groups."
      },
      "remove_linked_device": {
        "request": "RemoveLinkedDeviceRequest",
        "doc": "Remove a linked device from the Signal account. Only allowed when the local device id is 1"
      },
      "update_group": {
        "request": "UpdateGroupRequest",
        "response": "GroupInfo",
        "doc": "modify a group. Note that only one modification action may be performed at once"
      },
      "set_profile": {
        "request": "SetProfile"
      },
      "resolve_address": {
        "request": "ResolveAddressRequest",
        "response": "JsonAddress",
        "doc": "Resolve a partial JsonAddress with only a number or UUID to one with both. Anywhere that signald accepts a JsonAddress will except a partial, this is a convenience function for client authors, mostly because signald doesn't resolve all the partials it returns"
      },
      "mark_read": {
        "request": "MarkReadRequest"
      },
      "get_profile": {
        "request": "GetProfileRequest",
        "response": "Profile",
        "doc": "Get all information available about a user"
      },
      "list_groups": {
        "request": "ListGroupsRequest",
        "response": "GroupList"
      },
      "list_contacts": {
        "request": "ListContactsRequest",
        "response": "ProfileList"
      },
      "create_group": {
        "request": "CreateGroupRequest",
        "response": "JsonGroupV2Info"
      },
      "leave_group": {
        "request": "LeaveGroupRequest",
        "response": "GroupInfo"
      },
      "generate_linking_uri": {
        "request": "GenerateLinkingURIRequest",
        "response": "LinkingURI",
        "doc": "Generate a linking URI. Typically this is QR encoded and scanned by the primary device. Submit the returned session_id with a finish_link request."
      },
      "finish_link": {
        "request": "FinishLinkRequest",
        "response": "Account",
        "doc": "After a linking URI has been requested, finish_link must be called with the session_id provided with the URI. it will return information about the new account once the linking process is completed by the other device."
      },
      "add_device": {
        "request": "AddLinkedDeviceRequest",
        "doc": "Link a new device to a local Signal account"
      },
      "register": {
        "request": "RegisterRequest",
        "response": "Account",
        "doc": "begin the account registration process by requesting a phone number verification code. when the code is received, submit it with a verify request"
      },
      "verify": {
        "request": "VerifyRequest",
        "response": "Account",
        "doc": "verify an account's phone number with a code after registering, completing the account creation process"
      },
      "get_identities": {
        "request": "GetIdentitiesRequest",
        "response": "IdentityKeyList",
        "doc": "Get information about a known keys for a particular address"
      },
      "trust": {
        "request": "TrustRequest",
        "doc": "Trust another user's safety number using either the QR code data or the safety number text"
      },
      "delete_account": {
        "request": "DeleteAccountRequest",
        "doc": "delete all account data signald has on disk, and optionally delete the account from the server as well. Note that this is not \"unlink\" and will delete the entire account, even from a linked device."
      },
      "typing": {
        "request": "TypingRequest",
        "doc": "send a typing started or stopped message"
      },
      "reset_session": {
        "request": "ResetSessionRequest",
        "response": "SendResponse",
        "doc": "reset a session with a particular user"
      },
      "request_sync": {
        "request": "RequestSyncRequest",
        "doc": "Request other devices on the account send us their group list, syncable config and contact list."
      },
      "list_accounts": {
        "request": "ListAccountsRequest",
        "response": "AccountList",
        "doc": "return all local accounts"
      },
      "group_link_info": {
        "request": "GroupLinkInfoRequest",
        "response": "JsonGroupJoinInfo",
        "doc": "Get information about a group from a signal.group link"
      },
      "update_contact": {
        "request": "UpdateContactRequest",
        "response": "Profile",
        "doc": "update information about a local contact"
      },
      "set_expiration": {
        "request": "SetExpirationRequest",
        "response": "SendResponse",
        "doc": "Set the message expiration timer for a thread. Expiration must be specified in seconds, set to 0 to disable timer"
      },
      "set_device_name": {
        "request": "SetDeviceNameRequest",
        "doc": "set this device's name. This will show up on the mobile device on the same account under "
      },
      "get_all_identities": {
        "request": "GetAllIdentities",
        "response": "AllIdentityKeyList",
        "doc": "get all known identity keys"
      },
      "subscribe": {
        "request": "SubscribeRequest",
        "doc": "receive incoming messages. After making a subscribe request, incoming messages will be sent to the client encoded as ClientMessageWrapper. Send an unsubscribe request or disconnect from the socket to stop receiving messages."
      },
      "unsubscribe": {
        "request": "UnsubscribeRequest",
        "doc": "See subscribe for more info"
      },
      "remote_delete": {
        "request": "RemoteDeleteRequest",
        "response": "SendResponse",
        "doc": "delete a message previously sent"
      },
      "add_server": {
        "request": "AddServerRequest",
        "response": "String",
        "doc": "add a new server to connect to. Returns the new server's UUID."
      },
      "get_servers": {
        "request": "GetServersRequest",
        "response": "ServerList"
      },
      "delete_server": {
        "request": "RemoveServerRequest"
      },
      "send_payment": {
        "request": "SendPaymentRequest",
        "response": "SendResponse",
        "doc": "send a mobilecoin payment"
      },
      "get_remote_config": {
        "request": "RemoteConfigRequest",
        "response": "RemoteConfigList",
        "doc": "Retrieves the remote config (feature flags) from the server."
      }
    }
  }
}
